{
    "RENAPRIL 5MG 5mg": [
        "47"
    ],
    "NOVOXIM-500 0,5g": [
        "10",
        "82"
    ],
    "HO\u1ea0T HUY\u1ebeT D\u01af\u1ee0NG N\u00c3O 150mg+20mg": [
        "64"
    ],
    "GLUCOFAST 850 850mg": [
        "55",
        "57",
        "53"
    ],
    "DIAMICRON MR TAB 30MG 60'S 30mg": [
        "37"
    ],
    "ENALAPRIL 5mg": [
        "46"
    ],
    "MEGLUCON 1000 1000mg": [
        "56"
    ],
    "TROYSAR AM 5mg +50mg": [
        "1"
    ],
    "LENINARTO 10 10mg": [
        "14",
        "12"
    ],
    "STACETAM 800MG 800mg": [
        "92"
    ],
    "CEFADROXIL 500MG 0,5g": [
        "43",
        "19",
        "24"
    ],
    "PARTAMOL TAB. 500mg": [
        "91",
        "89",
        "99",
        "90"
    ],
    "CEFADROXIL 500MG 500mg": [
        "19",
        "43"
    ],
    "VACO LORATADINE 10mg": [
        "71",
        "70"
    ],
    "PANACTOL 500mg": [
        "91",
        "99",
        "89",
        "90",
        "88"
    ],
    "COSYNDO B 175mg+175mg+125mcg": [
        "104",
        "32"
    ],
    "GOLDDICRON 30mg": [
        "37"
    ],
    "HANGITOR PLUS 40mg+12,5mg": [
        "79"
    ],
    "KAGASDINE 20mg": [
        "87",
        "66"
    ],
    "CHORLATCYN 125mg+50mg+50mg+25mg": [
        "97",
        "35"
    ],
    "KAVASDIN 5 5mg": [
        "8"
    ],
    "DICLOFENAC 50mg": [
        "40",
        "39"
    ],
    "MYPARA 500 500mg": [
        "89",
        "99",
        "91",
        "90"
    ],
    "Metformin (Metformin 50500mg": [
        "54"
    ],
    "Atorvastatin (Atoris 20mg) 20mg": [
        "15",
        "64"
    ],
    "CEFADROXIL 0,5g": [
        "43",
        "19",
        "24"
    ],
    "MENISON 16MG 16mg": [
        "75",
        "73"
    ],
    "Amoxicilin (Fabamox 50500mg": [
        "10"
    ],
    "\u0110inh l\u0103ng, b\u1ea1ch qu\u1ea3 (Ho\u1ea1t huy\u1ebft d\u01b0\u1ee1ng n\u00e3o) 150mg+20mg": [
        "64",
        "15"
    ],
    "FABAMOX 500 500mg": [
        "10"
    ],
    "VITAMIN C STADA 1G 1g": [
        "105"
    ],
    "CARDILOPIN 5mg": [
        "8",
        "22"
    ],
    "DIXIREIN 375mg": [
        "2",
        "21"
    ],
    "DROXICEF 0,5g": [
        "43",
        "19"
    ],
    "AMOXICILIN 500MG 500mg": [
        "10"
    ],
    "MELOXICAM 7,5mg": [
        "81"
    ],
    "HO\u1ea0T HUY\u1ebeT D\u01af\u1ee0NG N\u00c3O BDF 150mg+5mg": [
        "64"
    ],
    "CEFACYL 500 0,5g": [
        "61",
        "26"
    ],
    "SAVILOSARTAN 50 50mg": [
        "72"
    ],
    "SAVI LOSARTAN 50 50mg": [
        "72"
    ],
    "EBITAC 12.5 10mg + 12,5mg": [
        "45"
    ],
    "SAVI PROLOL 5 5mg": [
        "31"
    ],
    "B\u1ed0 HUY\u1ebeT \u00cdCH N\u00c3O BDF 40mg+300mg": [
        "65"
    ],
    "PAMLONOR 5mg": [
        "8"
    ],
    "Bisoprolol (SaviProlol 2,2,5mg": [
        "41"
    ],
    "METRONIDAZOL 250mg": [
        "51"
    ],
    "CEPHALEXIN PMP 500 0,5g": [
        "26"
    ],
    "METHYLSOLONE 16MG 16mg": [
        "73"
    ],
    "SETBLOOD 115mg+100mg+50mcg": [
        "104",
        "100"
    ],
    "MEZAFEN 60mg": [
        "78",
        "40"
    ],
    "FUDCIME 200MG 200mg": [
        "34"
    ],
    "BROMHEXIN ACTAVIS 8MG 8mg": [
        "59",
        "63"
    ],
    "VIPREDNI 16MG 16mg": [
        "73",
        "77",
        "75"
    ],
    "Telmisartan % hydroclorothiazid (Hangitor plus) 40mg+12,5mg": [
        "79"
    ],
    "Loxoprofen (Mezafen) 60mg": [
        "78",
        "40"
    ],
    "HO\u1ea0T HUY\u1ebeT D\u01af\u1ee0NG N\u00c3O QN 150mg+20mg": [
        "64"
    ],
    "LIVONIC 2500mg+400mg+500mg+85mg": [
        "68"
    ],
    "Cefalexin (Firstlexin 500,5g": [
        "26",
        "61"
    ],
    "Paracetamol (Partamol Tab.) 500mg": [
        "91",
        "99",
        "89"
    ],
    "Metronidazol (Metronidazol 25250 mg": [
        "51"
    ],
    "Methyl prednisolon (Methylprednisolon 4mg": [
        "74",
        "76"
    ],
    "Carbocistein (Anpemux) 250mg": [
        "2"
    ],
    "PARACETAMOL 500MG 500mg": [
        "99",
        "89",
        "91",
        "0",
        "60"
    ],
    "STATRIPSINE 4,2mg": [
        "7"
    ],
    "TYDOL PM 500mg + 25mg": [
        "60",
        "101",
        "1"
    ],
    "KATRYPSIN 4,2mg": [
        "7"
    ],
    "MEDIBOGAN 200mg + 150mg + 16mg": [
        "52"
    ],
    "DROXICEF 500MG 0,5g": [
        "43",
        "19"
    ],
    "CLORPHENIRAMIN 4mg": [
        "29"
    ],
    "FAMOGAST 40mg": [
        "50"
    ],
    "Drotaverin clohydrat (Dromasm fort) 80mg": [
        "36",
        "48"
    ],
    "METRONIDAZOL 250 250mg": [
        "51"
    ],
    "CHORLATCYN 125mg;50mg;50mg;25mg": [
        "97"
    ],
    "BLOZA 50mg": [
        "33"
    ],
    "SERGUROP 10mg": [
        "5",
        "70",
        "14"
    ],
    "SAVIPROLOL 2,5 2,5mg": [
        "41"
    ],
    "ATORIS 20MG 20mg": [
        "15",
        "13"
    ],
    "VINA-AD 2000ui+ 400ui": [
        "103"
    ],
    "HAPENXIN CAPSULES 0,5g": [
        "26",
        "61"
    ],
    "BROMHEXIN ACTAVIS 8mg": [
        "59",
        "63"
    ],
    "AMOXICILLIN 500MG 0,5g": [
        "10"
    ],
    "ANPEMUX 250mg": [
        "2"
    ],
    "DROMASM FORT 80mg": [
        "36",
        "48"
    ],
    "XITORAN 0,5g": [
        "24",
        "43"
    ],
    "B\u1ed1 GAN P/H 125mg+100mg+25mg": [
        "18"
    ],
    "Kim ti\u1ec1n th\u1ea3o, r\u00e2u ng\u00f4 (Kim ti\u1ec1n th\u1ea3o) 120mg+35mg": [
        "67"
    ],
    "METFORMIN 500 500mg": [
        "54"
    ],
    "COSYNDO B 175mg+175mg+125mg": [
        "104"
    ],
    "Gliclazid (Golddicron) 30mg": [
        "42",
        "37"
    ],
    "CARUDXAN 2mg": [
        "23"
    ],
    "FABAMOX 500MG 500mg": [
        "49",
        "10"
    ],
    "CEPHALEXIN 250MG 0,25g": [
        "25"
    ],
    "MEGLUCON TAB 850MG 3X10'S 850mg": [
        "55"
    ],
    "GLUZITOP MR 60 60mg": [
        "38"
    ],
    "VENRUTINE 100mg +500mg": [
        "95",
        "102"
    ],
    "C1000 FLOODE 1g": [
        "106"
    ],
    "GLUCOFAST 500 500mg": [
        "54"
    ],
    "LAZIBET MR 60 60mg": [
        "38"
    ],
    "MILURIT 300mg": [
        "80"
    ],
    "GOUTCOLCIN 1mg": [
        "30"
    ],
    "INGARON 200 DST 200mg": [
        "27"
    ],
    "D\u01af\u1ee0NG T\u00c2M AN TH\u1ea6N": [
        "44"
    ],
    "CEFIXIM 200 200mg": [
        "17"
    ],
    "INBACID 10 10mg": [
        "14",
        "12"
    ],
    "Vitamin b1 + b6 + b12 (Savi 3B) 100mg+100mg+0,15mg": [
        "104"
    ],
    "NIFEDIPIN HASAN 20 RETARD 20mg": [
        "84"
    ],
    "COLCHICIN 1mg": [
        "30"
    ],
    "SADAPRON 300 300mg": [
        "6"
    ],
    "SAVI 3B 100mg+100mg+0,15mg": [
        "104"
    ],
    "DIAMICRON MR TAB 60MG 30'S 60mg": [
        "37"
    ],
    "AMOXYCILIN 250MG 0,25g": [
        "9"
    ],
    "Loratadin (Sergurop) 10mg": [
        "70"
    ],
    "NIFEDIPIN T20 STADA RETARD 20mg": [
        "84"
    ],
    "THANH NHI\u1ec6T TI\u00caU \u0110\u1ed8C LIVERGOOD": [
        "83"
    ],
    "Omeprazol (Kagasdine) 20mg": [
        "87"
    ],
    "Chlorpheniramin (hydrogen maleat) (Clorpheniramin) 4mg": [
        "29"
    ],
    "PYME DIAPRO MR 30mg": [
        "37"
    ],
    "BECOSEMID 40mg": [
        "4"
    ],
    "MENISON 4MG 4mg": [
        "74"
    ],
    "OTDXICAM 7.5mg": [
        "81"
    ],
    "AMCARDIA-5 5mg": [
        "8"
    ],
    "ALFACHIM 4,2mg": [
        "28",
        "7"
    ],
    "TIOGA 33,33mg+1g+0,34g+0,25g+0,17g": [
        "20"
    ],
    "DOROCRON - MR 30mg": [
        "42"
    ],
    "GAPHYTON S 100mg+75mg+7,5mg": [
        "69"
    ],
    "MEDIPLEX 800mg": [
        "3"
    ],
    "NORMAGUT 250mg": [
        "85"
    ],
    "ASPIRIN 81MG 81mg": [
        "11"
    ],
    "ALVERIN 40mg": [
        "98"
    ],
    "FIBROFIN-145 145mg": [
        "58"
    ],
    "Enalapril thydrochlorothiazide (Ebitac 12.10mg + 12,5mg": [
        "45"
    ],
    "Olanzapin 10mg (Olanxol)": [
        "86"
    ],
    "MENISON 4mg": [
        "74"
    ],
    "PRAZOPRO 40mg": [
        "93"
    ],
    "KAHAGAN 0,1g+0,075g+0,075g": [
        "62"
    ],
    "VITAMINAD 2500ui+200ui": [
        "103"
    ],
    "Metformin (Meglucon 1001000 mg": [
        "56"
    ],
    "METHYLPREDNISOLON 4 4mg": [
        "74",
        "76"
    ],
    "SAVI ACARBOSE 100 100mg": [
        "96"
    ],
    "AVARINO 60mg+300mg": [
        "16"
    ],
    "SPASVINA 40mg": [
        "94"
    ]
}